{
  "type": "application",
  "source-directories": ["src"],
  "elm-version": "0.19.0",
  "dependencies": {
    "direct": {
      "elm/core": "1.0.2",
      "elm/html": "1.0.0",
      "rtfeldman/elm-css": "16.0.1",
      "xarvh/elm-slides": "5.0.0"
    },
    "indirect": {
      "Skinney/murmur3": "2.0.8",
      "elm/browser": "1.0.1",
      "elm/json": "1.1.3",
      "elm/time": "1.0.0",
      "elm/url": "1.0.0",
      "elm/virtual-dom": "1.0.2",
      "elm-community/easing-functions": "2.0.0",
      "elm-explorations/markdown": "1.0.0",
      "rtfeldman/elm-hex": "1.0.0"
    }
  },
  "test-dependencies": {
    "direct": {},
    "indirect": {}
  }
}
